{
	"info": {
		"_postman_id": "63610a79-27e6-4d45-83d5-216b42831e23",
		"name": "DropboxAPI_HT2_Varsha_Jain_Collection",
		"description": "This is a collection to access the dropbox API and play with them to upload a file, access the metadata of the file and then delete the file",
		"schema": "https://schema.getpostman.com/json/collection/v2.1.0/collection.json",
		"_exporter_id": "23624758"
	},
	"item": [
		{
			"name": "HT2_Postman_DropboxAPI_Testing",
			"item": [
				{
					"name": "File Upload",
					"event": [
						{
							"listen": "test",
							"script": {
								"exec": [
									"pm.test(\"Second test Case - Validate Successful file upload\", function(){",
									"    pm.response.to.have.status(200);",
									"});",
									"pm.test(\"Validate Response Body contains name\", function () {",
									"    pm.expect(pm.response.text()).to.include(\"name\");",
									"});",
									""
								],
								"type": "text/javascript"
							}
						}
					],
					"request": {
						"method": "POST",
						"header": [
							{
								"key": "Authorization",
								"value": "Bearer {{authToken}}"
							},
							{
								"key": "Dropbox-API-Arg",
								"value": "{\"autorename\":false,\"mode\":\"add\",\"mute\":false,\"path\":\"{{dropboxPath}}/DailyNotes.txt\",\"strict_conflict\":false}"
							},
							{
								"key": "Content-Type",
								"value": "application/octet-stream"
							}
						],
						"body": {
							"mode": "file",
							"file": {
								"src": "/Users/VJ/Downloads/homework 2/index.html"
							}
						},
						"url": {
							"raw": "https://content.dropboxapi.com/2/files/upload",
							"protocol": "https",
							"host": [
								"content",
								"dropboxapi",
								"com"
							],
							"path": [
								"2",
								"files",
								"upload"
							]
						}
					},
					"response": []
				},
				{
					"name": "Get Metadata",
					"event": [
						{
							"listen": "test",
							"script": {
								"exec": [
									"pm.test(\"Third test Case - Validate Successful metadata request\", function(){",
									"    pm.response.to.have.status(200);",
									"});",
									"pm.test(\"Validate Response Body contains tag\", function () {",
									"    pm.expect(pm.response.text()).to.include(\".tag\");",
									"});"
								],
								"type": "text/javascript"
							}
						}
					],
					"request": {
						"method": "POST",
						"header": [
							{
								"key": "Authorization",
								"value": "Bearer {{authToken}}"
							},
							{
								"key": "Content-Type",
								"value": "application/json"
							}
						],
						"body": {
							"mode": "raw",
							"raw": "{\"include_deleted\":false,\"include_has_explicit_shared_members\":false,\"include_media_info\":false,\"path\":\"{{dropboxPath}}/DailyNotes.txt\"}"
						},
						"url": {
							"raw": "https://api.dropboxapi.com/2/files/get_metadata",
							"protocol": "https",
							"host": [
								"api",
								"dropboxapi",
								"com"
							],
							"path": [
								"2",
								"files",
								"get_metadata"
							]
						}
					},
					"response": []
				},
				{
					"name": "Delete file",
					"event": [
						{
							"listen": "test",
							"script": {
								"exec": [
									"pm.test(\"Fourth test Case - Validate Successful file deletion\", function(){",
									"    pm.response.to.have.status(200);",
									"});",
									"pm.test(\"Validate Response Body contains tag\", function () {",
									"    pm.expect(pm.response.text()).to.include(\".tag\");",
									"});"
								],
								"type": "text/javascript"
							}
						}
					],
					"request": {
						"method": "POST",
						"header": [
							{
								"key": "Authorization",
								"value": "Bearer {{authToken}}"
							},
							{
								"key": "Content-Type",
								"value": "application/json"
							}
						],
						"body": {
							"mode": "raw",
							"raw": "{\"path\":\"{{dropboxPath}}/DailyNotes.txt\"}"
						},
						"url": {
							"raw": "https://api.dropboxapi.com/2/files/delete_v2",
							"protocol": "https",
							"host": [
								"api",
								"dropboxapi",
								"com"
							],
							"path": [
								"2",
								"files",
								"delete_v2"
							]
						}
					},
					"response": []
				}
			],
			"event": [
				{
					"listen": "prerequest",
					"script": {
						"type": "text/javascript",
						"exec": [
							""
						]
					}
				},
				{
					"listen": "test",
					"script": {
						"type": "text/javascript",
						"exec": [
							""
						]
					}
				}
			]
		}
	],
	"event": [
		{
			"listen": "prerequest",
			"script": {
				"type": "text/javascript",
				"exec": [
					"const echoPostRequest = {",
					"  url: 'https://api.dropbox.com/oauth2/token',",
					"  method: 'POST',",
					"  header: ",
					"          'Content-Type:application/x-www-form-urlencoded',",
					"  body: {",
					"    mode: 'urlencoded',",
					"    urlencoded: [",
					"          { key: 'refresh_token', value: pm.environment.get('refreshToken') },",
					"          { key: 'grant_type', value: 'refresh_token' },",
					"          { key: 'client_id', value: pm.environment.get('clientId') },",
					"          { key: 'client_secret', value: pm.environment.get('clientSecret') },",
					"      ]",
					"  }",
					"};",
					"",
					"var getToken = true;",
					"",
					"if (!pm.environment.get('accessTokenExpiry') || ",
					"    !pm.environment.get('authToken')) {",
					"    console.log('Token or expiry date are missing')",
					"} else if (pm.environment.get('accessTokenExpiry') <= (new Date()).getTime()) {",
					"    console.log('Token is expired')",
					"} else {",
					"    getToken = false;",
					"    console.log('Token and expiry date are all good');",
					"}",
					"",
					"if (getToken === true) {",
					"    pm.sendRequest(echoPostRequest, function (err, res) {",
					"    console.log(err ? err : res.json());",
					"        if (err === null) {",
					"            console.log('Saving the token and expiry date')",
					"            var responseJson = res.json();",
					"            pm.environment.set('authToken', responseJson.access_token)",
					"    ",
					"            var expiryDate = new Date();",
					"            expiryDate.setSeconds(expiryDate.getSeconds() + responseJson.expires_in);",
					"            pm.environment.set('accessTokenExpiry', expiryDate.getTime());",
					"        }",
					"    });",
					"}"
				]
			}
		},
		{
			"listen": "test",
			"script": {
				"type": "text/javascript",
				"exec": [
					""
				]
			}
		}
	]
}